<svg width="20" height="15" viewBox="0 0 20 15" fill="none" xmlns="http://www.w3.org/2000/svg">
<path d="M10 0C7.17578 0 4.67969 0.292969 3.15625 0.515625C1.89648 0.700195 0.879883 1.64941 0.648438 2.90625C0.452148 3.97559 0.25 5.54004 0.25 7.5C0.25 9.45996 0.452148 11.0244 0.648438 12.0938C0.879883 13.3506 1.89648 14.3027 3.15625 14.4844C4.68555 14.707 7.19043 15 10 15C12.8096 15 15.3145 14.707 16.8438 14.4844C18.1035 14.3027 19.1201 13.3506 19.3516 12.0938C19.5479 11.0215 19.75 9.4541 19.75 7.5C19.75 5.5459 19.5508 3.97852 19.3516 2.90625C19.1201 1.64941 18.1035 0.700195 16.8438 0.515625C15.3203 0.292969 12.8242 0 10 0ZM10 1.5C12.7246 1.5 15.1592 1.77832 16.6328 1.99219C17.2656 2.08594 17.7607 2.56348 17.875 3.1875C18.0566 4.17773 18.25 5.64551 18.25 7.5C18.25 9.35156 18.0566 10.8223 17.875 11.8125C17.7607 12.4365 17.2686 12.917 16.6328 13.0078C15.1533 13.2217 12.707 13.5 10 13.5C7.29297 13.5 4.84375 13.2217 3.36719 13.0078C2.73438 12.917 2.23926 12.4365 2.125 11.8125C1.94336 10.8223 1.75 9.35742 1.75 7.5C1.75 5.63965 1.94336 4.17773 2.125 3.1875C2.23926 2.56348 2.73145 2.08594 3.36719 1.99219C4.83789 1.77832 7.27539 1.5 10 1.5ZM7.75 3.21094V11.7891L8.875 11.1562L14.125 8.15625L15.25 7.5L14.125 6.84375L8.875 3.84375L7.75 3.21094ZM9.25 5.78906L12.2266 7.5L9.25 9.21094V5.78906Z" fill="white"/>
</svg>
